[gd_scene load_steps=3 format=3 uid="uid://ck1gs04sengxm"]

[ext_resource type="Script" path="res://scenes/main.cs" id="1_k27uh"]
[ext_resource type="PackedScene" uid="uid://d3jvkoypmrn4v" path="res://scenes/hud.tscn" id="3_d3qm2"]

[node name="Main" type="Node2D"]
script = ExtResource("1_k27uh")

[node name="HUD" parent="." instance=ExtResource("3_d3qm2")]

[node name="MarginContainer" type="MarginContainer" parent="."]
offset_left = 338.0
offset_top = 182.0
offset_right = 378.0
offset_bottom = 222.0

[node name="GameOverLabel" type="Label" parent="."]
visible = false
visibility_layer = 513
offset_left = 411.0
offset_top = 216.0
offset_right = 498.0
offset_bottom = 265.0
text = "Game Over
Your score:"
horizontal_alignment = 1
vertical_alignment = 1
