[gd_scene load_steps=3 format=3 uid="uid://drhno5fmfcsh0"]

[sub_resource type="Theme" id="Theme_g0t6d"]

[sub_resource type="StyleBoxFlat" id="StyleBoxFlat_j08pn"]
bg_color = Color(1, 0, 0.0901961, 1)
corner_radius_top_left = 5
corner_radius_top_right = 5
corner_radius_bottom_right = 5
corner_radius_bottom_left = 5

[node name="SnakeSegment" type="Panel"]
offset_right = 50.0
offset_bottom = 50.0
theme = SubResource("Theme_g0t6d")
theme_override_styles/panel = SubResource("StyleBoxFlat_j08pn")
